^D:\ПРОЕКТ2\SERVER2.2\SERVER2.2\PCH.CPP
D:\проект2\SERVER2.2\SERVER2.2\DEBUG\SERVER2.2.PCH
D:\проект2\SERVER2.2\SERVER2.2\DEBUG\VC142.PDB
D:\проект2\SERVER2.2\SERVER2.2\DEBUG\PCH.OBJ
^D:\ПРОЕКТ2\SERVER2.2\SERVER2.2\ASSEMBLYINFO.CPP|D:\ПРОЕКТ2\SERVER2.2\SERVER2.2\DB.CPP|D:\ПРОЕКТ2\SERVER2.2\SERVER2.2\SERVER2.2.CPP
D:\проект2\SERVER2.2\SERVER2.2\DEBUG\VC142.PDB
D:\проект2\SERVER2.2\SERVER2.2\DEBUG\SERVER2.2.OBJ
D:\проект2\SERVER2.2\SERVER2.2\DEBUG\DB.OBJ
D:\проект2\SERVER2.2\SERVER2.2\DEBUG\ASSEMBLYINFO.OBJ
^D:\ПРОЕКТ2\SERVER2.2\SERVER2.2\ASSEMBLYINFO.CPP
D:\ПРОЕКТ2\SERVER2.2\SERVER2.2\DEBUG\VC142.PDB
^D:\ПРОЕКТ2\SERVER2.2\SERVER2.2\DB.CPP
D:\ПРОЕКТ2\SERVER2.2\SERVER2.2\DEBUG\VC142.PDB
^D:\ПРОЕКТ2\SERVER2.2\SERVER2.2\SERVER2.2.CPP
D:\ПРОЕКТ2\SERVER2.2\SERVER2.2\DEBUG\VC142.PDB
^C:\USERS\ELLIOT_GRACE\APPDATA\LOCAL\TEMP\.NETFRAMEWORK,VERSION=V4.6.1.ASSEMBLYATTRIBUTES.CPP
D:\проект2\SERVER2.2\SERVER2.2\DEBUG\VC142.PDB
D:\проект2\SERVER2.2\SERVER2.2\DEBUG\.NETFRAMEWORK,VERSION=V4.6.1.ASSEMBLYATTRIBUTES.OBJ
