^C:\USERS\NATAL\SOURCE\REPOS\SERVER2.2\SERVER2.2\APP.RC
/D _UNICODE /D UNICODE /l"0x0409" /nologo /fo"DEBUG\APP.RES"  C:\USERS\NATAL\SOURCE\REPOS\SERVER2.2\SERVER2.2\APP.RC
^D:\ПРОЕКТ2\SERVER2.2\SERVER2.2\APP.RC
/D _UNICODE /D UNICODE /l"0x0409" /nologo /fo"DEBUG\APP.RES"  D:\ПРОЕКТ2\SERVER2.2\SERVER2.2\APP.RC
